MiniProject_01/1101_hw1/tb.vcd
$date
    Feb  9, 2026  23:39:00
$end
$version
    TOOL:	xmsim(64)	24.03-s013
$end
$timescale
    1 ps
$end

$scope module tb $end
$var parameter 32 !    INT_W $end
$var parameter 32 "    FRAC_W $end
$var parameter 32 #    INST_W $end
$var parameter 32 $    DATA_W $end
$var reg       1 %    i_clk $end
$var reg       1 &    i_rst_n $end
$var reg       1 '    i_valid $end
$var reg      12 (    i_data_a [11:0] $end
$var reg      12 )    i_data_b [11:0] $end
$var reg       3 *    i_inst [2:0] $end
$var wire      1 +    o_valid  $end
$var wire     12 ,    o_data [11:0] $end
$var wire      1 -    o_overflow  $end
$var integer  32 .    i $end
$var integer  32 /    j $end
$var integer  32 0    error $end
$var reg      27 1    inst_idata[0] [26:0] $end
$var reg      27 2    inst_idata[1] [26:0] $end
$var reg      27 3    inst_idata[2] [26:0] $end
$var reg      27 4    inst_idata[3] [26:0] $end
$var reg      27 5    inst_idata[4] [26:0] $end
$var reg      27 6    inst_idata[5] [26:0] $end
$var reg      27 7    inst_idata[6] [26:0] $end
$var reg      27 8    inst_idata[7] [26:0] $end
$var reg      27 9    inst_idata[8] [26:0] $end
$var reg      27 :    inst_idata[9] [26:0] $end
$var reg      27 ;    inst_idata[10] [26:0] $end
$var reg      27 <    inst_idata[11] [26:0] $end
$var reg      27 =    inst_idata[12] [26:0] $end
$var reg      27 >    inst_idata[13] [26:0] $end
$var reg      27 ?    inst_idata[14] [26:0] $end
$var reg      27 @    inst_idata[15] [26:0] $end
$var reg      27 A    inst_idata[16] [26:0] $end
$var reg      27 B    inst_idata[17] [26:0] $end
$var reg      27 C    inst_idata[18] [26:0] $end
$var reg      27 D    inst_idata[19] [26:0] $end
$var reg      13 E    inst_odata[0] [12:0] $end
$var reg      13 F    inst_odata[1] [12:0] $end
$var reg      13 G    inst_odata[2] [12:0] $end
$var reg      13 H    inst_odata[3] [12:0] $end
$var reg      13 I    inst_odata[4] [12:0] $end
$var reg      13 J    inst_odata[5] [12:0] $end
$var reg      13 K    inst_odata[6] [12:0] $end
$var reg      13 L    inst_odata[7] [12:0] $end
$var reg      13 M    inst_odata[8] [12:0] $end
$var reg      13 N    inst_odata[9] [12:0] $end
$var reg      13 O    inst_odata[10] [12:0] $end
$var reg      13 P    inst_odata[11] [12:0] $end
$var reg      13 Q    inst_odata[12] [12:0] $end
$var reg      13 R    inst_odata[13] [12:0] $end
$var reg      13 S    inst_odata[14] [12:0] $end
$var reg      13 T    inst_odata[15] [12:0] $end
$var reg      13 U    inst_odata[16] [12:0] $end
$var reg      13 V    inst_odata[17] [12:0] $end
$var reg      13 W    inst_odata[18] [12:0] $end
$var reg      13 X    inst_odata[19] [12:0] $end
$var reg      12 Y    test_inA [11:0] $end
$var reg      12 Z    test_inB [11:0] $end
$var reg       3 [    test_inst [2:0] $end
$var reg       1 \    test_outO $end
$var reg      12 ]    test_outD [11:0] $end

$scope module u_alu $end
$var wire      1 ^    i_clk  $end
$var wire      1 _    i_rst_n  $end
$var wire      1 `    i_valid  $end
$var wire     12 a    i_data_a [11:0] $end
$var wire     12 b    i_data_b [11:0] $end
$var wire      3 c    i_inst [2:0] $end
$var wire      1 +    o_valid  $end
$var wire     12 ,    o_data [11:0] $end
$var wire      1 -    o_overflow  $end
$var reg      12 d    o_data_w [11:0] $end
$var reg      12 e    o_data_r [11:0] $end
$var reg       1 f    o_valid_w $end
$var reg       1 g    o_valid_r $end
$var reg       1 h    o_overflow_w $end
$var reg       1 i    o_overflow_r $end
$var reg      24 j    result_long [23:0] $end
$var reg      12 k    accumulator [11:0] $end
$var reg      24 l    sum_long [23:0] $end
$upscope $end

$upscope $end

$enddefinitions $end
$dumpvars
b1100 $
b11 #
b101 "
b111 !
0%
1&
0'
b0 (
b0 )
b0 *
x+
bx ,
x-
b0 .
b0 /
b0 0
b10000101000111000000001001 1
b10111001010110000001011011 2
b10100111110100111111101011 3
b10111101011010000010011010 4
b10000000010101001110010011 5
b10011000000100111111110111 6
b10111110111101110101110111 7
b10100111111000111111110111 8
b10111001111001000010000110 9
b10000110110111111111001010 :
b10000000100101101100110101 ;
b10000000100011111011100110 <
b10111101110110000000011011 =
b10111001000011111111111100 >
b10000000001110111110101001 ?
b10110011001110110010111111 @
b10000010100001011101100110 A
b10001010111000010001101000 B
b10011001001010011110101110 C
b10110011110100111000100011 D
b1011100 E
b101101000101 F
b1111111000 G
b110011100001 H
b1001011000 I
b111001001111 J
b10101001111 K
b110110010 L
b100110011011 M
b110100011011 N
b101001110101 O
b111011001100 P
b111110001100 Q
b111000 R
b111111011010 S
b1101001100101 T
b1100101001110 U
b1101111111010 V
b1110000010011 W
b1101101011010 X
bx Y
bx Z
bx [
x\
bx ]
0^
1_
0`
b0 a
b0 b
b0 c
b0 d
bx e
0f
xg
0h
xi
b0 j
bx k
b0 l
$end
#2500
0&
0_
b0 e
0i
0g
b0 k
0+
0-
b0 ,
#5000
1%
1^
#10000
0%
0^
#15000
1%
1^
#20000
0%
0^
#22500
1&
1_
#25000
1%
1^
#30000
0%
0^
#35000
1%
1^
#40000
0%
1'
b1001 (
b101000111 )
b10 *
b1 .
b10 c
b101000111 b
b1001 a
1`
0^
b101101111111 j
b101110001111 j
b1011100 d
1f
#45000
1%
1^
b1011100 e
1g
1+
b1011100 ,
#50000
0%
b1001 Y
b101000111 Z
b10 [
0\
b1011100 ]
b1 /
b1011011 (
b111001010110 )
b10 .
b111001010110 b
b1011011 a
0^
b0 d
0f
b0 j
b111111110110100010010010 j
b111111110110100010100010 j
b101101000101 d
1f
#55000
1%
1^
b101101000101 e
b101101000101 ,
#60000
0%
b1011011 Y
b111001010110 Z
b101101000101 ]
b10 /
b111111101011 (
b100111110100 )
b11 .
b100111110100 b
b111111101011 a
0^
b0 d
0f
b0 j
b111111011111100 j
b111111100001100 j
b1111111000 d
1f
#65000
1%
1^
b1111111000 e
b1111111000 ,
#70000
0%
b111111101011 Y
b100111110100 Z
b1111111000 ]
b11 /
b10011010 (
b111101011010 )
b100 .
b111101011010 b
b10011010 a
0^
b0 d
0f
b0 j
b111111111001110000100100 j
b111111111001110000110100 j
b110011100001 d
1f
#75000
1%
1^
b110011100001 e
b110011100001 ,
#80000
0%
b10011010 Y
b111101011010 Z
b110011100001 ]
b100 /
b1110010011 (
b10101 )
b101 .
b10101 b
b1110010011 a
0^
b0 d
0f
b0 j
b100101100001111 j
b100101100011111 j
b1001011000 d
1f
#85000
1%
1^
b1001011000 e
b1001011000 ,
#90000
0%
b1110010011 Y
b10101 Z
b1001011000 ]
b101 /
b111111110111 (
b11000000100 )
b110 .
b11000000100 b
b111111110111 a
0^
b0 d
0f
b0 j
b111111111100100111011100 j
b111111111100100111101100 j
b111001001111 d
1f
#95000
1%
1^
b111001001111 e
b111001001111 ,
#100000
0%
b111111110111 Y
b11000000100 Z
b111001001111 ]
b110 /
0'
0`
0^
b0 d
0f
b0 j
#105000
1%
1^
b0 e
0g
0+
b0 ,
#110000
0%
1'
b110101110111 (
b111110111101 )
b111 .
b111110111101 b
b110101110111 a
1`
0^
b1010100111011011 j
b1010100111101011 j
b10101001111 d
1f
#115000
1%
1^
b10101001111 e
1g
1+
b10101001111 ,
#120000
0%
b110101110111 Y
b111110111101 Z
b10101001111 ]
b111 /
b111111110111 (
b100111111000 )
b1000 .
b100111111000 b
b111111110111 a
0^
b0 d
0f
b0 j
b11011001001000 j
b11011001011000 j
b110110010 d
1f
#125000
1%
1^
b110110010 e
b110110010 ,
#130000
0%
b111111110111 Y
b100111111000 Z
b110110010 ]
b1000 /
0'
0`
0^
b0 d
0f
b0 j
#135000
1%
1^
b0 e
0g
0+
b0 ,
#140000
0%
1'
b10000110 (
b111001111001 )
b1001 .
b111001111001 b
b10000110 a
1`
0^
b111111110011001101010110 j
b111111110011001101100110 j
b100110011011 d
1f
#145000
1%
1^
b100110011011 e
1g
1+
b100110011011 ,
#150000
0%
b10000110 Y
b111001111001 Z
b100110011011 ]
b1001 /
b111111001010 (
b110110111 )
b1010 .
b110110111 b
b111111001010 a
0^
b0 d
0f
b0 j
b111111111010001101100110 j
b111111111010001101110110 j
b110100011011 d
1f
#155000
1%
1^
b110100011011 e
b110100011011 ,
#160000
0%
b111111001010 Y
b110110111 Z
b110100011011 ]
b1010 /
0'
0`
0^
b0 d
0f
b0 j
#165000
1%
1^
b0 e
0g
0+
b0 ,
#170000
0%
1'
b101100110101 (
b100101 )
b1011 .
b100101 b
b101100110101 a
1`
0^
b111111110100111010101001 j
b111111110100111010111001 j
b101001110101 d
1f
#175000
1%
1^
b101001110101 e
1g
1+
b101001110101 ,
#180000
0%
b101100110101 Y
b100101 Z
b101001110101 ]
b1011 /
0'
0`
0^
b0 d
0f
b0 j
#185000
1%
1^
b0 e
0g
0+
b0 ,
#190000
0%
1'
b111011100110 (
b100011 )
b1100 .
b100011 b
b111011100110 a
1`
0^
b111111111101100101110010 j
b111111111101100110000010 j
b111011001100 d
1f
#195000
1%
1^
b111011001100 e
1g
1+
b111011001100 ,
#200000
0%
b111011100110 Y
b100011 Z
b111011001100 ]
b1100 /
0'
0`
0^
b0 d
0f
b0 j
#205000
1%
1^
b0 e
0g
0+
b0 ,
#210000
0%
1'
b11011 (
b111101110110 )
b1101 .
b111101110110 b
b11011 a
1`
0^
b111111111111000101110010 j
b111111111111000110000010 j
b111110001100 d
1f
#215000
1%
1^
b111110001100 e
1g
1+
b111110001100 ,
#220000
0%
b11011 Y
b111101110110 Z
b111110001100 ]
b1101 /
b111111111100 (
b111001000011 )
b1110 .
b111001000011 b
b111111111100 a
0^
b0 d
0f
b0 j
b11011110100 j
b11100000100 j
b111000 d
1f
#225000
1%
1^
b111000 e
b111000 ,
#230000
0%
b111111111100 Y
b111001000011 Z
b111000 ]
b1110 /
0'
0`
0^
b0 d
0f
b0 j
#235000
1%
1^
b0 e
0g
0+
b0 ,
#240000
0%
1'
b111110101001 (
b1110 )
b1111 .
b1110 b
b111110101001 a
1`
0^
b111111111111101100111110 j
b111111111111101101001110 j
b111111011010 d
1f
#245000
1%
1^
b111111011010 e
1g
1+
b111111011010 ,
#250000
0%
b111110101001 Y
b1110 Z
b111111011010 ]
b1111 /
0'
0`
0^
b0 d
0f
b0 j
#255000
1%
1^
b0 e
0g
0+
b0 ,
#260000
0%
0^
#265000
1%
1^
#270000
0%
0^
#275000
1%
1^
#280000
0%
1'
b110010111111 (
b110011001110 )
b10000 .
b110011001110 b
b110010111111 a
1`
0^
b10100110010110110010 j
b10100110010111000010 j
1h
b1100101110 d
1f
#285000
1%
1^
b1100101110 e
1i
1g
1+
1-
b1100101110 ,
#290000
0%
b110010111111 Y
b110011001110 Z
1\
b101001100101 ]
b10000 /
0'
0`
0^
b0 d
0h
0f
b0 j
#295000
1%
1^
b0 e
0i
0g
0+
0-
b0 ,
#300000
0%
1'
b11101100110 (
b10100001 )
b10001 .
b10100001 b
b11101100110 a
1`
0^
b1001010011100100110 j
b1001010011100110110 j
1h
b10100111001 d
1f
#305000
1%
1^
b10100111001 e
1i
1g
1+
1-
b10100111001 ,
#310000
0%
b11101100110 Y
b10100001 Z
b100101001110 ]
b10001 /
b10001101000 (
b1010111000 )
b10010 .
b1010111000 b
b10001101000 a
0^
b0 d
0h
0f
b0 j
b10111111101011000000 j
b10111111101011010000 j
1h
b111111010110 d
1f
#315000
1%
1^
b111111010110 e
b111111010110 ,
#320000
0%
b10001101000 Y
b1010111000 Z
b101111111010 ]
b10010 /
b11110101110 (
b11001001010 )
b10011 .
b11001001010 b
b11110101110 a
0^
b0 d
0h
0f
b0 j
b1100000100110001001100 j
b1100000100110001011100 j
1h
b1001100010 d
1f
#325000
1%
1^
b1001100010 e
b1001100010 ,
#330000
0%
b11110101110 Y
b11001001010 Z
b110000010011 ]
b10011 /
b111000100011 (
b110011110100 )
b10100 .
b110011110100 b
b111000100011 a
0^
b0 d
0h
0f
b0 j
b1011010110101011100 j
b1011010110101101100 j
1h
b110101101011 d
1f
#335000
1%
1^
b110101101011 e
b110101101011 ,
#340000
0%
b111000100011 Y
b110011110100 Z
b101101011010 ]
b10100 /
0'
0`
0^
b0 d
0h
0f
b0 j
#345000
1%
1^
b0 e
0i
0g
0+
0-
b0 ,
